peak fitness:448.4439 generation: 0 species:3
Final Order:  Avg Fitness | Peak Fitness | Diversity 
 S: 5    0:  161.5919   |   286.852   |   0
 S: 3    1:  134.611   |   295.3322   |   0
 S: 0    2:  190.5114   |   279.1385   |   0
 S: 19    3:  168.516   |   239.0647   |   0
 S: 12    4:  113.4563   |   283.2954   |   0
 S: 4    5:  104.8221   |   280.1812   |   0
 S: 14    6:  118.8197   |   159.1149   |   0
 S: 18    7:  93.4241   |   121.6541   |   0
 S: 13    8:  91.32433   |   123.2178   |   0
 S: 2    9:  88.84927   |   114.5419   |   0
 S: 10    10:  32.73772   |   38.9202   |   0
 S: 11    11:  6.549633   |   8.472534   |   0
 S: 15    12:  2.016495   |   3.517236   |   0
 S: 6    13:  2.015782   |   3.51649   |   0
 S: 1    14:  2.005011   |   3.505021   |   0
 S: 7    15:  2.005011   |   3.505021   |   0
 S: 8    16:  2.005011   |   3.505021   |   0
 S: 9    17:  2.005011   |   3.505021   |   0
 S: 16    18:  2.005011   |   3.505021   |   0
 S: 17    19:  2.005011   |   3.505021   |   0
peak fitness:480.175 generation: 1 species:6
Final Order:  Avg Fitness | Peak Fitness | Diversity 
 S: 7    0:  195.9084   |   284.2665   |   29
 S: 16    1:  194.2078   |   280.8402   |   26
 S: 17    2:  171.1497   |   239.5941   |   29
 S: 2    3:  194.1753   |   285.4904   |   21
 S: 6    4:  105.8272   |   286.1536   |   21
 S: 1    5:  146.1714   |   205.4257   |   27
 S: 5    6:  114.2426   |   152.2769   |   37
 S: 9    7:  94.86112   |   180.6491   |   34
 S: 3    8:  147.575   |   209.0266   |   21
 S: 14    9:  79.00317   |   130.6002   |   42
 S: 13    10:  88.14736   |   110.6379   |   34
 S: 4    11:  80.91784   |   140.9115   |   23
 S: 15    12:  83.27617   |   119.6277   |   24
 S: 10    13:  2.016194   |   3.516931   |   27
 S: 8    14:  2.019275   |   3.520227   |   23
 S: 11    15:  2.005011   |   3.505021   |   24
 S: 0    16:  1.924959   |   6.390002   |   24
 S: 12    17:  2.005011   |   3.505021   |   25
 S: 18    18:  2.005011   |   3.505021   |   27
 S: 19    19:  2.005011   |   3.505021   |   27
peak fitness:481.6124 generation: 2 species:4
Final Order:  Avg Fitness | Peak Fitness | Diversity 
 S: 4    0:  193.825   |   287.7874   |   42
 S: 13    1:  195.2284   |   284.84   |   36
 S: 9    2:  194.6042   |   282.1528   |   39
 S: 15    3:  116.4615   |   152.4153   |   44
 S: 8    4:  59.87283   |   72.46565   |   45
 S: 18    5:  5.078569   |   6.639672   |   52
 S: 19    6:  5.065564   |   6.816559   |   46
 S: 12    7:  71.61979   |   139.974   |   32
 S: 14    8:  1.836938   |   6.394292   |   50
 S: 5    9:  1.831032   |   6.502137   |   50
 S: 16    10:  3.345486   |   5.550836   |   49
 S: 6    11:  2.01863   |   3.519485   |   57
 S: 11    12:  4.25075   |   5.913077   |   42
 S: 1    13:  1.809183   |   6.367273   |   46
 S: 0    14:  2.005011   |   3.505021   |   41
 S: 3    15:  2.005011   |   3.505021   |   44
 S: 2    16:  1.593201   |   5.985029   |   36
 S: 10    17:  2.005011   |   3.505021   |   45
 S: 17    18:  2.005011   |   3.505021   |   47
 S: 7    19:  2.005011   |   3.505021   |   37
peak fitness:215.0328 generation: 3 species:4
Final Order:  Avg Fitness | Peak Fitness | Diversity 
 S: 4    0:  75.0567   |   139.9761   |   52
 S: 6    1:  96.94182   |   133.8636   |   48
 S: 15    2:  86.91305   |   109.1003   |   51
 S: 14    3:  53.43137   |   93.17181   |   51
 S: 8    4:  3.271403   |   8.421623   |   55
 S: 9    5:  5.687458   |   13.05083   |   51
 S: 3    6:  2.334619   |   3.693645   |   66
 S: 0    7:  2.040821   |   3.542378   |   62
 S: 5    8:  2.021123   |   3.52214   |   55
 S: 1    9:  2.005011   |   3.505021   |   59
 S: 2    10:  1.54505   |   4.973003   |   61
 S: 17    11:  1.735731   |   6.290461   |   54
 S: 18    12:  2.018249   |   3.519108   |   47
 S: 7    13:  1.730326   |   6.339018   |   46
 S: 10    14:  2.005011   |   3.505021   |   53
 S: 11    15:  2.005011   |   3.505021   |   55
 S: 13    16:  2.005011   |   3.505021   |   58
 S: 16    17:  2.005011   |   3.505021   |   56
 S: 12    18:  2.005011   |   3.505021   |   49
 S: 19    19:  2.005011   |   3.505021   |   55
peak fitness:259.4578 generation: 4 species:3
Final Order:  Avg Fitness | Peak Fitness | Diversity 
 S: 14    0:  78.95692   |   180.5009   |   74
 S: 3    1:  115.2243   |   224.4426   |   63
 S: 18    2:  104.0165   |   143.287   |   70
 S: 5    3:  95.99306   |   170.909   |   66
 S: 16    4:  79.11903   |   135.8709   |   70
 S: 10    5:  33.1171   |   38.94699   |   74
 S: 19    6:  100.6632   |   134.2953   |   65
 S: 17    7:  2.017369   |   3.51816   |   81
 S: 12    8:  2.02073   |   3.521668   |   73
 S: 2    9:  2.017173   |   3.517954   |   77
 S: 0    10:  1.655293   |   6.397692   |   72
 S: 6    11:  2.016909   |   3.517679   |   75
 S: 1    12:  1.849904   |   6.37309   |   69
 S: 4    13:  1.651376   |   5.146182   |   71
 S: 11    14:  1.718582   |   6.328507   |   62
 S: 7    15:  2.005011   |   3.505021   |   63
 S: 9    16:  2.005011   |   3.505021   |   67
 S: 8    17:  2.005011   |   3.505021   |   63
 S: 13    18:  2.005011   |   3.505021   |   69
 S: 15    19:  2.005011   |   3.505021   |   70
peak fitness:428.5598 generation: 5 species:2
Final Order:  Avg Fitness | Peak Fitness | Diversity 
 S: 2    0:  131.9859   |   296.5738   |   31
 S: 19    1:  122.2723   |   288.6224   |   32
 S: 5    2:  123.9623   |   290.6045   |   25
 S: 15    3:  118.2664   |   290.1825   |   30
 S: 9    4:  112.5565   |   286.2465   |   32
 S: 3    5:  116.7491   |   287.2225   |   22
 S: 17    6:  112.3194   |   284.3726   |   30
 S: 12    7:  109.708   |   283.5356   |   31
 S: 8    8:  109.4286   |   282.332   |   35
 S: 0    9:  109.5171   |   284.481   |   23
 S: 11    10:  108.51   |   282.2571   |   27
 S: 14    11:  119.162   |   277.8539   |   20
 S: 16    12:  100.3851   |   172.8541   |   26
 S: 6    13:  99.02031   |   278.9279   |   25
 S: 7    14:  99.5903   |   279.8347   |   17
 S: 4    15:  79.65681   |   135.7517   |   31
 S: 18    16:  80.19731   |   136.129   |   26
 S: 10    17:  2.933167   |   7.244737   |   38
 S: 1    18:  66.94996   |   122.5818   |   27
 S: 13    19:  32.57668   |   38.78012   |   25
peak fitness:417.3121 generation: 6 species:9
Final Order:  Avg Fitness | Peak Fitness | Diversity 
 S: 9    0:  126.7023   |   290.6098   |   34
 S: 4    1:  125.9714   |   289.9587   |   29
 S: 3    2:  125.6173   |   290.5437   |   24
 S: 16    3:  124.6056   |   289.4181   |   26
 S: 0    4:  125.8389   |   289.742   |   19
 S: 14    5:  122.6392   |   288.5222   |   32
 S: 1    6:  111.1953   |   282.6828   |   35
 S: 13    7:  122.0947   |   288.5744   |   24
 S: 12    8:  89.51968   |   147.4206   |   35
 S: 18    9:  118.2034   |   281.2029   |   22
 S: 7    10:  90.19643   |   148.1582   |   25
 S: 10    11:  86.23173   |   143.598   |   21
 S: 6    12:  79.76117   |   136.1047   |   37
 S: 8    13:  82.88344   |   139.6942   |   26
 S: 2    14:  83.14999   |   139.1815   |   25
 S: 17    15:  77.60909   |   140.5348   |   16
 S: 19    16:  35.34558   |   42.19843   |   30
 S: 5    17:  36.16631   |   43.43461   |   23
 S: 11    18:  2.015195   |   3.515862   |   29
 S: 15    19:  6.420068   |   14.37456   |   25
peak fitness:493.0344 generation: 7 species:15
Final Order:  Avg Fitness | Peak Fitness | Diversity 
 S: 15    0:  195.5343   |   297.5001   |   43
 S: 3    1:  126.4868   |   289.3936   |   41
 S: 11    2:  117.1393   |   279.3043   |   48
 S: 12    3:  165.9624   |   236.2552   |   43
 S: 17    4:  120.9218   |   287.7918   |   35
 S: 5    5:  116.3779   |   286.9478   |   40
 S: 7    6:  114.6191   |   284.3075   |   39
 S: 9    7:  105.4501   |   166.7574   |   42
 S: 13    8:  98.60463   |   180.9722   |   41
 S: 2    9:  80.44234   |   136.8003   |   47
 S: 16    10:  82.55063   |   139.5573   |   43
 S: 0    11:  79.50309   |   136.1425   |   50
 S: 10    12:  80.12924   |   136.0692   |   50
 S: 6    13:  79.75291   |   136.1364   |   45
 S: 8    14:  19.71961   |   42.78178   |   45
 S: 1    15:  4.855849   |   11.14871   |   41
 S: 18    16:  2.014646   |   3.515286   |   52
 S: 4    17:  4.399186   |   10.51227   |   38
 S: 14    18:  1.435755   |   5.049172   |   44
 S: 19    19:  4.058233   |   5.711214   |   41
peak fitness:451.0268 generation: 8 species:7
Final Order:  Avg Fitness | Peak Fitness | Diversity 
 S: 7    0:  147.698   |   303.3287   |   31
 S: 6    1:  141.8548   |   299.1912   |   32
 S: 14    2:  144.3812   |   301.1902   |   28
 S: 2    3:  128.6461   |   291.4959   |   37
 S: 12    4:  130.1626   |   289.6783   |   28
 S: 19    5:  125.8311   |   290.7577   |   28
 S: 9    6:  154.1397   |   251.0001   |   23
 S: 11    7:  111.3674   |   282.0512   |   32
 S: 8    8:  138.3813   |   288.6854   |   20
 S: 18    9:  104.7821   |   167.1582   |   37
 S: 5    10:  99.89442   |   181.1519   |   32
 S: 15    11:  80.07533   |   136.2799   |   28
 S: 3    12:  79.84911   |   136.1669   |   29
 S: 0    13:  85.41537   |   109.3355   |   26
 S: 17    14:  4.152037   |   5.814539   |   38
 S: 10    15:  4.092702   |   5.742851   |   33
 S: 1    16:  32.37915   |   38.69676   |   21
 S: 13    17:  32.38576   |   38.60631   |   18
 S: 4    18:  4.07091   |   5.721131   |   33
 S: 16    19:  2.014883   |   3.515533   |   21
peak fitness:458.2114 generation: 9 species:19
Final Order:  Avg Fitness | Peak Fitness | Diversity 
 S: 1    0:  152.0903   |   306.1211   |   51
 S: 19    1:  157.0943   |   309.4795   |   42
 S: 0    2:  146.2477   |   302.0744   |   44
 S: 5    3:  154.0329   |   250.9886   |   55
 S: 3    4:  113.3556   |   284.6879   |   50
 S: 4    5:  121.8266   |   288.0045   |   35
 S: 17    6:  113.3531   |   286.7479   |   38
 S: 18    7:  117.8075   |   224.5558   |   39
 S: 15    8:  141.8008   |   196.5449   |   34
 S: 12    9:  118.561   |   199.0116   |   29
 S: 6    10:  82.50356   |   155.1667   |   45
 S: 10    11:  97.30073   |   189.0893   |   38
 S: 8    12:  76.27352   |   140.6308   |   44
 S: 2    13:  80.16318   |   136.2497   |   43
 S: 9    14:  92.41312   |   121.0152   |   33
 S: 11    15:  2.014976   |   3.51563   |   51
 S: 13    16:  32.42098   |   38.59626   |   36
 S: 16    17:  4.083616   |   5.737869   |   44
 S: 7    18:  21.87764   |   44.42537   |   35
 S: 14    19:  2.005011   |   3.505021   |   48
peak fitness:479.2446 generation: 10 species:13
Final Order:  Avg Fitness | Peak Fitness | Diversity 
 S: 11    0:  192.8933   |   286.3513   |   64
 S: 13    1:  147.8635   |   303.0854   |   52
 S: 5    2:  158.0154   |   278.5208   |   60
 S: 4    3:  127.7674   |   290.936   |   56
 S: 19    4:  193.1498   |   287.2367   |   50
 S: 6    5:  146.6514   |   301.5212   |   51
 S: 7    6:  118.1059   |   224.1143   |   54
 S: 10    7:  83.46772   |   182.1438   |   65
 S: 9    8:  116.5761   |   157.7402   |   58
 S: 3    9:  92.25175   |   121.0966   |   57
 S: 15    10:  100.7649   |   166.3841   |   48
 S: 16    11:  32.39629   |   38.61871   |   57
 S: 12    12:  91.53042   |   121.5083   |   47
 S: 0    13:  32.40074   |   38.61326   |   52
 S: 2    14:  32.34403   |   38.60985   |   57
 S: 8    15:  4.158297   |   5.816113   |   52
 S: 17    16:  2.005011   |   3.505021   |   60
 S: 1    17:  2.005011   |   3.505021   |   55
 S: 14    18:  2.014712   |   3.51535   |   45
 S: 18    19:  2.005011   |   3.505021   |   55
peak fitness:483.9601 generation: 11 species:10
Final Order:  Avg Fitness | Peak Fitness | Diversity 
 S: 18    0:  193.5744   |   290.3857   |   30
 S: 16    1:  194.1972   |   291.2794   |   24
 S: 8    2:  193.3299   |   288.5533   |   33
 S: 10    3:  143.2332   |   299.2151   |   26
 S: 1    4:  193.4994   |   288.6576   |   24
 S: 17    5:  191.994   |   285.9785   |   34
 S: 12    6:  125.4741   |   289.8558   |   27
 S: 15    7:  122.994   |   289.0779   |   30
 S: 13    8:  192.5094   |   284.7985   |   25
 S: 9    9:  192.9679   |   284.249   |   26
 S: 6    10:  122.7491   |   288.0052   |   30
 S: 11    11:  130.672   |   263.4379   |   39
 S: 14    12:  191.7211   |   284.6599   |   23
 S: 5    13:  169.8693   |   247.8839   |   26
 S: 7    14:  92.23331   |   185.8119   |   38
 S: 19    15:  83.51436   |   155.6075   |   27
 S: 3    16:  52.30042   |   90.80589   |   29
 S: 0    17:  17.38994   |   38.97754   |   31
 S: 4    18:  32.45165   |   38.7206   |   29
 S: 2    19:  4.827017   |   11.9939   |   22
peak fitness:491.2739 generation: 12 species:14
Final Order:  Avg Fitness | Peak Fitness | Diversity 
 S: 14    0:  184.8842   |   306.3897   |   40
 S: 11    1:  142.9692   |   299.5433   |   49
 S: 4    2:  145.5045   |   301.4275   |   43
 S: 17    3:  194.9536   |   291.4101   |   39
 S: 1    4:  142.7007   |   299.5191   |   44
 S: 19    5:  193.2509   |   288.9979   |   42
 S: 15    6:  193.4531   |   289.9604   |   32
 S: 10    7:  129.3494   |   291.6751   |   39
 S: 6    8:  192.6545   |   286.2916   |   35
 S: 18    9:  170.2852   |   249.4223   |   35
 S: 0    10:  166.842   |   235.5287   |   35
 S: 2    11:  80.25763   |   136.3429   |   48
 S: 9    12:  83.64512   |   139.119   |   39
 S: 12    13:  85.48515   |   156.3463   |   33
 S: 7    14:  32.28099   |   38.58002   |   37
 S: 8    15:  3.820845   |   9.283167   |   41
 S: 16    16:  1.666454   |   5.076274   |   47
 S: 13    17:  2.014595   |   3.51523   |   44
 S: 3    18:  4.493422   |   6.184858   |   29
 S: 5    19:  1.860772   |   5.109148   |   37
peak fitness:449.3031 generation: 13 species:13
Final Order:  Avg Fitness | Peak Fitness | Diversity 
 S: 13    0:  146.9368   |   302.3663   |   65
 S: 2    1:  131.2693   |   294.0499   |   62
 S: 3    2:  133.5053   |   293.1725   |   58
 S: 9    3:  134.8082   |   293.8854   |   51
 S: 11    4:  192.1016   |   285.4347   |   52
 S: 5    5:  169.4493   |   249.0759   |   53
 S: 8    6:  129.7118   |   292.888   |   49
 S: 4    7:  126.0473   |   181.5318   |   53
 S: 15    8:  119.2607   |   287.5595   |   48
 S: 19    9:  77.0246   |   140.4698   |   60
 S: 6    10:  123.022   |   224.7556   |   52
 S: 12    11:  32.38103   |   38.60331   |   55
 S: 18    12:  22.51314   |   45.06489   |   55
 S: 17    13:  22.51148   |   45.26763   |   54
 S: 7    14:  32.19279   |   38.41531   |   61
 S: 0    15:  32.36824   |   38.63264   |   49
 S: 16    16:  32.3163   |   38.56716   |   49
 S: 1    17:  5.211069   |   12.69196   |   55
 S: 14    18:  2.014813   |   3.515457   |   55
 S: 10    19:  2.015079   |   3.515735   |   51
peak fitness:396.2061 generation: 14 species:10
Final Order:  Avg Fitness | Peak Fitness | Diversity 
 S: 16    0:  111.8896   |   284.3164   |   72
 S: 10    1:  129.4022   |   292.8259   |   63
 S: 14    2:  84.96582   |   141.0673   |   68
 S: 0    3:  104.347   |   167.2819   |   56
 S: 7    4:  83.23116   |   140.1149   |   69
 S: 18    5:  84.3776   |   140.0706   |   68
 S: 8    6:  76.47031   |   140.4076   |   58
 S: 17    7:  81.26322   |   136.4324   |   61
 S: 19    8:  32.28527   |   38.62661   |   67
 S: 6    9:  31.4602   |   37.61719   |   68
 S: 15    10:  3.016334   |   8.547996   |   84
 S: 11    11:  6.060014   |   14.50286   |   68
 S: 1    12:  5.55173   |   13.48242   |   61
 S: 9    13:  1.655472   |   5.42607   |   70
 S: 3    14:  2.857065   |   4.411989   |   70
 S: 4    15:  2.005011   |   3.505021   |   75
 S: 5    16:  1.440694   |   5.07432   |   67
 S: 12    17:  1.403149   |   5.025378   |   71
 S: 2    18:  1.447728   |   5.06891   |   66
 S: 13    19:  1.447915   |   5.068451   |   60
peak fitness:483.5221 generation: 15 species:19
Final Order:  Avg Fitness | Peak Fitness | Diversity 
 S: 6    0:  192.4054   |   291.1167   |   88
 S: 17    1:  123.2845   |   289.7321   |   90
 S: 19    2:  132.5789   |   292.7976   |   70
 S: 14    3:  97.64321   |   181.1059   |   85
 S: 0    4:  130.2835   |   282.2628   |   71
 S: 3    5:  82.36916   |   136.3262   |   83
 S: 10    6:  80.30408   |   136.4415   |   82
 S: 2    7:  80.29225   |   136.5444   |   80
 S: 4    8:  67.46558   |   115.3992   |   84
 S: 16    9:  50.85696   |   107.806   |   86
 S: 18    10:  36.5574   |   43.95085   |   90
 S: 15    11:  26.0541   |   48.92336   |   92
 S: 12    12:  28.56858   |   69.97415   |   84
 S: 11    13:  32.26996   |   38.51674   |   84
 S: 13    14:  32.28443   |   38.53309   |   78
 S: 5    15:  29.67629   |   36.7939   |   79
 S: 9    16:  4.448933   |   9.761541   |   84
 S: 7    17:  1.440779   |   5.073615   |   89
 S: 8    18:  1.687112   |   5.447079   |   77
 S: 1    19:  1.494205   |   5.124303   |   80
peak fitness:482.1034 generation: 16 species:15
Final Order:  Avg Fitness | Peak Fitness | Diversity 
 S: 15    0:  177.0008   |   305.1026   |   28
 S: 13    1:  192.178   |   289.661   |   33
 S: 7    2:  148.9758   |   304.3616   |   28
 S: 3    3:  143.6429   |   300.1441   |   31
 S: 8    4:  130.6415   |   294.1   |   33
 S: 16    5:  143.5378   |   300.3167   |   23
 S: 10    6:  184.5421   |   280.6473   |   23
 S: 19    7:  116.5424   |   286.4189   |   21
 S: 9    8:  79.08067   |   136.1873   |   33
 S: 0    9:  81.76484   |   139.0901   |   27
 S: 18    10:  79.13475   |   136.1804   |   30
 S: 14    11:  4.125533   |   5.786308   |   38
 S: 2    12:  4.12019   |   5.780101   |   29
 S: 12    13:  4.123475   |   5.783359   |   25
 S: 17    14:  2.014548   |   3.515176   |   34
 S: 11    15:  3.659003   |   5.277631   |   27
 S: 1    16:  2.014612   |   3.515246   |   29
 S: 4    17:  2.014524   |   3.51515   |   25
 S: 6    18:  2.005011   |   3.505021   |   26
 S: 5    19:  2.005011   |   3.505021   |   19
peak fitness:403.102 generation: 17 species:18
Final Order:  Avg Fitness | Peak Fitness | Diversity 
 S: 16    0:  116.8347   |   286.2673   |   30
 S: 19    1:  128.5953   |   286.5725   |   25
 S: 18    2:  117.808   |   286.7051   |   17
 S: 2    3:  112.8736   |   283.3918   |   26
 S: 6    4:  107.8779   |   282.2774   |   30
 S: 11    5:  114.7131   |   282.2601   |   26
 S: 9    6:  146.8439   |   276.2906   |   25
 S: 1    7:  130.3269   |   281.8641   |   23
 S: 12    8:  106.6964   |   281.2059   |   25
 S: 5    9:  29.58523   |   70.05483   |   26
 S: 17    10:  15.95125   |   36.6078   |   28
 S: 7    11:  13.50368   |   36.86709   |   27
 S: 3    12:  3.504267   |   8.473868   |   33
 S: 8    13:  3.66218   |   5.277947   |   33
 S: 10    14:  3.841174   |   5.472115   |   25
 S: 4    15:  2.014575   |   3.515205   |   32
 S: 0    16:  2.005011   |   3.505021   |   36
 S: 14    17:  3.748485   |   5.374904   |   20
 S: 15    18:  2.005011   |   3.505021   |   34
 S: 13    19:  2.005011   |   3.505021   |   22
peak fitness:477.3102 generation: 18 species:8
Final Order:  Avg Fitness | Peak Fitness | Diversity 
 S: 17    0:  191.1511   |   286.1591   |   43
 S: 8    1:  144.3345   |   300.4107   |   39
 S: 15    2:  110.5135   |   282.7274   |   48
 S: 16    3:  193.4672   |   289.5562   |   29
 S: 9    4:  104.2886   |   179.692   |   37
 S: 12    5:  85.66927   |   110.5232   |   43
 S: 2    6:  79.08983   |   136.4937   |   34
 S: 4    7:  72.26288   |   96.71007   |   38
 S: 3    8:  4.589042   |   10.62794   |   42
 S: 13    9:  3.612935   |   9.322667   |   47
 S: 19    10:  2.333259   |   7.150181   |   52
 S: 14    11:  3.662851   |   5.278707   |   46
 S: 11    12:  4.146564   |   5.807965   |   37
 S: 5    13:  2.056734   |   7.212236   |   28
 S: 1    14:  2.523512   |   3.858469   |   30
 S: 10    15:  2.014517   |   3.515144   |   43
 S: 0    16:  2.022284   |   3.52318   |   32
 S: 6    17:  2.005011   |   3.505021   |   43
 S: 7    18:  2.005011   |   3.505021   |   44
 S: 18    19:  2.005011   |   3.505021   |   34
peak fitness:410.017 generation: 19 species:6
Final Order:  Avg Fitness | Peak Fitness | Diversity 
 S: 8    0:  121.6321   |   288.3849   |   39
 S: 6    1:  124.0535   |   289.8611   |   24
 S: 7    2:  121.3481   |   289.0888   |   24
 S: 3    3:  190.9021   |   286.7629   |   23
 S: 16    4:  145.1239   |   207.6591   |   34
 S: 2    5:  190.8542   |   284.4066   |   23
 S: 0    6:  120.673   |   288.3698   |   20
 S: 18    7:  109.7163   |   282.1707   |   30
 S: 5    8:  140.9641   |   195.9932   |   23
 S: 4    9:  113.2627   |   282.5648   |   23
 S: 12    10:  116.8018   |   159.4343   |   24
 S: 14    11:  7.900612   |   11.9453   |   32
 S: 10    12:  3.584208   |   9.352953   |   33
 S: 11    13:  4.29333   |   5.965507   |   29
 S: 19    14:  4.175193   |   5.83968   |   25
 S: 13    15:  3.549084   |   8.556055   |   24
 S: 15    16:  4.262045   |   5.933558   |   21
 S: 9    17:  2.015052   |   3.515704   |   31
 S: 1    18:  4.095721   |   5.751729   |   19
 S: 17    19:  2.005011   |   3.505021   |   25
peak fitness:434.0226 generation: 20 species:17
Final Order:  Avg Fitness | Peak Fitness | Diversity 
 S: 17    0:  137.7275   |   296.2951   |   42
 S: 11    1:  120.7134   |   287.6268   |   53
 S: 19    2:  191.7813   |   288.2156   |   26
 S: 1    3:  192.6122   |   284.2777   |   44
 S: 14    4:  176.6064   |   284.7023   |   41
 S: 0    5:  120.7562   |   288.0814   |   36
 S: 18    6:  190.8237   |   283.9333   |   38
 S: 8    7:  116.6118   |   286.2569   |   37
 S: 2    8:  99.54784   |   136.7997   |   50
 S: 12    9:  99.2346   |   136.8801   |   45
 S: 10    10:  86.13066   |   110.2827   |   47
 S: 9    11:  80.64565   |   136.3606   |   37
 S: 6    12:  36.13393   |   43.58856   |   50
 S: 4    13:  2.93786   |   4.680735   |   51
 S: 15    14:  36.60395   |   44.05337   |   26
 S: 7    15:  2.774177   |   4.292432   |   50
 S: 3    16:  5.057021   |   8.887955   |   24
 S: 5    17:  2.005011   |   3.505021   |   39
 S: 13    18:  2.005011   |   3.505021   |   45
 S: 16    19:  2.005011   |   3.505021   |   46
peak fitness:454.8943 generation: 21 species:5
Final Order:  Avg Fitness | Peak Fitness | Diversity 
 S: 3    0:  150.5592   |   304.3351   |   59
 S: 5    1:  200.5618   |   332.9498   |   49
 S: 2    2:  132.1751   |   292.9049   |   62
 S: 6    3:  193.616   |   289.3475   |   58
 S: 12    4:  105.2894   |   279.5236   |   65
 S: 17    5:  88.8139   |   115.8538   |   64
 S: 4    6:  128.2643   |   282.7996   |   44
 S: 15    7:  80.51058   |   136.4431   |   57
 S: 16    8:  43.37096   |   55.00121   |   49
 S: 1    9:  3.223349   |   8.553095   |   69
 S: 9    10:  32.32123   |   38.57772   |   46
 S: 19    11:  4.811583   |   9.436695   |   38
 S: 10    12:  3.208017   |   8.484337   |   66
 S: 11    13:  3.252264   |   8.504485   |   53
 S: 13    14:  3.242633   |   8.550909   |   52
 S: 8    15:  2.479237   |   5.485124   |   52
 S: 18    16:  2.655262   |   4.174549   |   54
 S: 14    17:  1.448162   |   5.070929   |   50
 S: 7    18:  2.005011   |   3.505021   |   58
 S: 0    19:  1.416361   |   5.048928   |   47
peak fitness:454.7616 generation: 22 species:15
Final Order:  Avg Fitness | Peak Fitness | Diversity 
 S: 2    0:  150.4191   |   304.3425   |   33
 S: 4    1:  149.2441   |   304.4149   |   33
 S: 8    2:  196.0511   |   301.9033   |   35
 S: 15    3:  149.9888   |   304.7473   |   23
 S: 17    4:  148.8412   |   303.3459   |   30
 S: 6    5:  145.8079   |   301.1541   |   29
 S: 0    6:  146.3954   |   301.617   |   26
 S: 18    7:  145.1865   |   300.5994   |   28
 S: 13    8:  144.7793   |   300.2975   |   30
 S: 11    9:  145.055   |   300.855   |   20
 S: 3    10:  143.8025   |   300.3223   |   27
 S: 1    11:  144.1265   |   300.2949   |   23
 S: 12    12:  112.5432   |   283.684   |   27
 S: 9    13:  79.96199   |   136.1365   |   33
 S: 19    14:  79.95463   |   136.1335   |   30
 S: 7    15:  79.80302   |   136.1371   |   22
 S: 14    16:  4.180533   |   5.840611   |   21
 S: 5    17:  4.13778   |   5.794895   |   21
 S: 16    18:  4.132585   |   5.793439   |   23
 S: 10    19:  2.014544   |   3.515174   |   27
peak fitness:454.1505 generation: 23 species:9
Final Order:  Avg Fitness | Peak Fitness | Diversity 
 S: 9    0:  149.478   |   304.6725   |   52
 S: 3    1:  141.5266   |   300.9131   |   51
 S: 10    2:  146.0336   |   301.4048   |   31
 S: 16    3:  193.7929   |   291.4651   |   41
 S: 2    4:  145.4963   |   300.8329   |   26
 S: 19    5:  143.6333   |   299.8885   |   30
 S: 15    6:  97.58695   |   136.9513   |   49
 S: 7    7:  135.914   |   294.8383   |   35
 S: 0    8:  80.07475   |   136.2005   |   39
 S: 14    9:  78.92079   |   136.3512   |   45
 S: 13    10:  79.80804   |   136.166   |   50
 S: 18    11:  79.74112   |   136.1873   |   47
 S: 17    12:  79.87411   |   136.1407   |   50
 S: 4    13:  80.02238   |   136.1273   |   46
 S: 11    14:  79.97936   |   136.1594   |   36
 S: 12    15:  85.53053   |   110.3083   |   39
 S: 8    16:  79.82702   |   136.1563   |   32
 S: 1    17:  7.784566   |   17.2514   |   42
 S: 5    18:  4.318275   |   11.12209   |   42
 S: 6    19:  4.139374   |   5.794511   |   41
peak fitness:445.2446 generation: 24 species:15
Final Order:  Avg Fitness | Peak Fitness | Diversity 
 S: 15    0:  144.5573   |   300.6873   |   58
 S: 17    1:  122.913   |   289.942   |   69
 S: 12    2:  132.6407   |   291.8451   |   60
 S: 6    3:  110.7838   |   250.7379   |   51
 S: 16    4:  113.7475   |   152.2601   |   47
 S: 3    5:  104.4647   |   168.0302   |   45
 S: 10    6:  113.0798   |   151.1786   |   44
 S: 19    7:  99.27412   |   137.0689   |   55
 S: 11    8:  79.82398   |   136.2992   |   57
 S: 4    9:  85.47944   |   110.2795   |   56
 S: 5    10:  79.80278   |   136.1859   |   47
 S: 2    11:  92.77954   |   123.6183   |   43
 S: 9    12:  33.86005   |   40.57396   |   61
 S: 8    13:  26.27597   |   44.7539   |   63
 S: 1    14:  67.2251   |   115.3665   |   40
 S: 18    15:  31.44817   |   37.65254   |   59
 S: 7    16:  31.4961   |   37.66566   |   53
 S: 13    17:  2.005011   |   3.505021   |   65
 S: 14    18:  2.005011   |   3.505021   |   67
 S: 0    19:  5.390083   |   11.6853   |   53
peak fitness:216.5922 generation: 25 species:14
Final Order:  Avg Fitness | Peak Fitness | Diversity 
 S: 7    0:  80.15865   |   136.4335   |   69
 S: 11    1:  79.89458   |   136.1977   |   70
 S: 14    2:  71.92525   |   140.4404   |   66
 S: 19    3:  80.16592   |   136.1323   |   58
 S: 15    4:  79.84391   |   136.1237   |   67
 S: 10    5:  40.23861   |   68.85886   |   72
 S: 8    6:  53.4258   |   96.82681   |   67
 S: 17    7:  27.29853   |   50.91436   |   69
 S: 0    8:  5.360888   |   13.14484   |   74
 S: 13    9:  14.36012   |   18.44638   |   67
 S: 2    10:  5.28349   |   7.06128   |   77
 S: 16    11:  3.621765   |   9.693671   |   68
 S: 9    12:  2.307845   |   7.179596   |   73
 S: 12    13:  2.853798   |   8.19449   |   60
 S: 5    14:  2.277059   |   3.794704   |   89
 S: 18    15:  1.713362   |   6.059863   |   80
 S: 6    16:  2.13324   |   3.720547   |   76
 S: 4    17:  2.005011   |   3.505021   |   72
 S: 1    18:  1.412854   |   5.036465   |   66
 S: 3    19:  2.005011   |   3.505021   |   62
peak fitness:233.2443 generation: 26 species:7
Final Order:  Avg Fitness | Peak Fitness | Diversity 
 S: 17    0:  98.30698   |   134.9373   |   91
 S: 7    1:  82.01092   |   136.3367   |   76
 S: 16    2:  79.99281   |   136.1764   |   78
 S: 19    3:  33.4606   |   40.03592   |   85
 S: 11    4:  4.035172   |   5.687101   |   87
 S: 14    5:  3.412572   |   9.337356   |   81
 S: 0    6:  2.026608   |   3.527634   |   86
 S: 1    7:  2.005011   |   3.505021   |   91
 S: 9    8:  2.014563   |   3.515191   |   76
 S: 5    9:  1.410685   |   5.040736   |   88
 S: 15    10:  2.014513   |   3.515139   |   77
 S: 6    11:  1.918067   |   6.539599   |   68
 S: 4    12:  2.005011   |   3.505021   |   84
 S: 8    13:  1.523546   |   5.035101   |   74
 S: 2    14:  2.005011   |   3.505021   |   70
 S: 3    15:  2.005011   |   3.505021   |   74
 S: 10    16:  2.005011   |   3.505021   |   83
 S: 12    17:  2.005011   |   3.505021   |   85
 S: 13    18:  2.005011   |   3.505021   |   77
 S: 18    19:  2.005011   |   3.505021   |   79
peak fitness:271.6283 generation: 27 species:10
Final Order:  Avg Fitness | Peak Fitness | Diversity 
 S: 10    0:  98.82897   |   172.7993   |   33
 S: 18    1:  99.14234   |   135.6458   |   32
 S: 7    2:  99.00748   |   135.6208   |   30
 S: 12    3:  98.69404   |   135.6169   |   30
 S: 1    4:  80.09075   |   136.167   |   30
 S: 19    5:  80.00884   |   136.1424   |   33
 S: 4    6:  80.00546   |   136.2221   |   29
 S: 5    7:  99.03622   |   134.8219   |   22
 S: 11    8:  80.13351   |   136.1424   |   27
 S: 3    9:  79.82957   |   136.1279   |   35
 S: 17    10:  92.43394   |   121.0875   |   27
 S: 15    11:  92.48782   |   121.0423   |   24
 S: 13    12:  92.38335   |   121.1974   |   19
 S: 0    13:  91.27464   |   120.4289   |   37
 S: 2    14:  91.35907   |   120.4525   |   29
 S: 8    15:  92.20009   |   121.0269   |   24
 S: 9    16:  84.90235   |   108.7235   |   28
 S: 16    17:  29.01167   |   51.20808   |   36
 S: 14    18:  25.61397   |   48.65412   |   29
 S: 6    19:  2.005011   |   3.505021   |   30
peak fitness:215.9981 generation: 28 species:17
Final Order:  Avg Fitness | Peak Fitness | Diversity 
 S: 19    0:  79.87936   |   136.1187   |   31
 S: 0    1:  69.03643   |   140.4677   |   29
 S: 17    2:  113.9199   |   152.1139   |   22
 S: 3    3:  64.88497   |   81.30077   |   30
 S: 4    4:  48.36603   |   86.75836   |   27
 S: 5    5:  9.121457   |   20.52556   |   28
 S: 13    6:  10.21822   |   12.8891   |   34
 S: 18    7:  7.298818   |   16.99361   |   23
 S: 15    8:  7.223824   |   16.90067   |   25
 S: 8    9:  6.585132   |   15.58361   |   32
 S: 9    10:  7.15351   |   16.69473   |   28
 S: 14    11:  6.501091   |   15.55823   |   30
 S: 2    12:  6.576747   |   15.63347   |   22
 S: 7    13:  9.698092   |   12.24113   |   23
 S: 6    14:  5.15558   |   12.69412   |   31
 S: 12    15:  5.31075   |   13.10496   |   25
 S: 10    16:  4.607101   |   6.307516   |   35
 S: 11    17:  4.139009   |   5.799756   |   29
 S: 16    18:  4.061532   |   5.710377   |   28
 S: 1    19:  0.9844287   |   4.51418   |   27
peak fitness:217.2637 generation: 29 species:5
Final Order:  Avg Fitness | Peak Fitness | Diversity 
 S: 5    0:  81.04599   |   136.2177   |   30
 S: 15    1:  80.28791   |   136.1667   |   29
 S: 14    2:  79.84864   |   136.0974   |   32
 S: 3    3:  98.62071   |   134.9775   |   28
 S: 4    4:  79.05873   |   134.9263   |   25
 S: 19    5:  42.9147   |   81.4784   |   26
 S: 12    6:  32.39201   |   38.65768   |   28
 S: 16    7:  63.56143   |   79.04733   |   22
 S: 17    8:  6.546028   |   15.49551   |   30
 S: 6    9:  8.427153   |   16.936   |   27
 S: 9    10:  13.95244   |   17.99771   |   21
 S: 13    11:  9.198619   |   11.6442   |   38
 S: 7    12:  6.053632   |   14.51977   |   25
 S: 10    13:  4.690347   |   11.95102   |   26
 S: 1    14:  5.238724   |   12.86701   |   19
 S: 0    15:  1.469616   |   5.051111   |   28
 S: 18    16:  4.050307   |   5.699772   |   23
 S: 8    17:  1.400787   |   5.02413   |   31
 S: 11    18:  1.401412   |   5.016459   |   28
 S: 2    19:  1.398747   |   5.034914   |   27
peak fitness:235.9536 generation: 30 species:5
Final Order:  Avg Fitness | Peak Fitness | Diversity 
 S: 5    0:  99.13133   |   136.8223   |   37
 S: 18    1:  80.05026   |   136.1619   |   42
 S: 2    2:  80.63742   |   136.194   |   35
 S: 13    3:  79.73028   |   136.1103   |   41
 S: 3    4:  79.93421   |   135.7212   |   51
 S: 0    5:  80.26487   |   136.104   |   36
 S: 16    6:  92.49897   |   121.0671   |   41
 S: 12    7:  80.14727   |   136.1073   |   33
 S: 6    8:  71.58216   |   127.402   |   50
 S: 8    9:  79.55123   |   136.055   |   41
 S: 10    10:  58.96056   |   72.45757   |   49
 S: 19    11:  18.94579   |   41.73006   |   55
 S: 9    12:  18.75663   |   41.77526   |   36
 S: 1    13:  4.1675   |   5.826402   |   44
 S: 17    14:  5.457291   |   7.258006   |   41
 S: 4    15:  4.134065   |   5.790518   |   47
 S: 7    16:  4.068324   |   5.718299   |   49
 S: 11    17:  4.128506   |   5.788845   |   41
 S: 14    18:  4.132042   |   5.788472   |   34
 S: 15    19:  2.005011   |   3.505021   |   43
peak fitness:410.1042 generation: 31 species:4
Final Order:  Avg Fitness | Peak Fitness | Diversity 
 S: 4    0:  123.7594   |   286.3448   |   54
 S: 17    1:  98.5992   |   134.9579   |   58
 S: 10    2:  85.10432   |   140.0436   |   51
 S: 16    3:  83.37347   |   139.8828   |   48
 S: 3    4:  73.16875   |   129.1128   |   62
 S: 18    5:  80.00027   |   136.2648   |   51
 S: 2    6:  91.37695   |   120.4181   |   59
 S: 9    7:  79.94176   |   136.1824   |   54
 S: 8    8:  92.33369   |   121.0356   |   54
 S: 15    9:  50.79016   |   87.47874   |   62
 S: 5    10:  71.55215   |   126.9713   |   46
 S: 0    11:  4.739206   |   11.80009   |   65
 S: 19    12:  3.205841   |   8.887429   |   74
 S: 6    13:  19.16685   |   41.74226   |   51
 S: 13    14:  4.252204   |   10.97507   |   56
 S: 7    15:  2.655128   |   7.655801   |   54
 S: 11    16:  2.014535   |   3.515164   |   58
 S: 14    17:  0.9634349   |   4.489591   |   57
 S: 12    18:  2.005011   |   3.505021   |   57
 S: 1    19:  2.015074   |   3.515732   |   50
peak fitness:263.7182 generation: 32 species:4
Final Order:  Avg Fitness | Peak Fitness | Diversity 
 S: 16    0:  94.91883   |   168.7994   |   26
 S: 8    1:  124.6497   |   176.4948   |   21
 S: 4    2:  86.67738   |   211.2887   |   24
 S: 9    3:  118.0862   |   166.5406   |   25
 S: 10    4:  76.29838   |   140.6725   |   32
 S: 11    5:  93.10402   |   157.567   |   21
 S: 6    6:  65.15774   |   120.9754   |   33
 S: 17    7:  67.00912   |   122.7798   |   28
 S: 1    8:  32.39582   |   38.6602   |   33
 S: 18    9:  57.17622   |   87.47409   |   25
 S: 15    10:  31.69275   |   55.58511   |   30
 S: 7    11:  13.2837   |   36.59661   |   35
 S: 14    12:  8.865891   |   19.96406   |   36
 S: 12    13:  8.59411   |   19.4376   |   34
 S: 5    14:  5.515548   |   12.92887   |   37
 S: 2    15:  5.387179   |   12.95384   |   32
 S: 19    16:  5.134702   |   12.72762   |   26
 S: 3    17:  6.973102   |   9.01494   |   23
 S: 0    18:  2.048836   |   6.545966   |   32
 S: 13    19:  1.494368   |   5.123952   |   23
peak fitness:281.431 generation: 33 species:1
Final Order:  Avg Fitness | Peak Fitness | Diversity 
 S: 1    0:  103.3908   |   178.0402   |   40
 S: 9    1:  78.31944   |   134.2843   |   42
 S: 3    2:  92.39524   |   121.0646   |   56
 S: 17    3:  75.64915   |   131.3405   |   44
 S: 11    4:  67.18413   |   122.9229   |   46
 S: 2    5:  27.08417   |   50.55914   |   49
 S: 10    6:  74.67801   |   130.095   |   36
 S: 15    7:  22.40212   |   44.17724   |   46
 S: 0    8:  11.88274   |   25.99326   |   48
 S: 19    9:  13.29042   |   36.49945   |   41
 S: 6    10:  7.953276   |   18.18351   |   43
 S: 13    11:  9.256409   |   20.69475   |   38
 S: 14    12:  7.972411   |   18.13822   |   39
 S: 12    13:  9.674354   |   17.0018   |   37
 S: 8    14:  5.222113   |   12.88393   |   34
 S: 16    15:  0.953121   |   4.446714   |   44
 S: 5    16:  2.01458   |   3.515211   |   44
 S: 18    17:  2.408969   |   3.953419   |   41
 S: 4    18:  0.9514485   |   4.450866   |   40
 S: 7    19:  2.014515   |   3.515142   |   36
peak fitness:239.2202 generation: 34 species:17
Final Order:  Avg Fitness | Peak Fitness | Diversity 
 S: 0    0:  84.09577   |   155.1244   |   62
 S: 17    1:  100.4325   |   216.9451   |   53
 S: 15    2:  79.77466   |   136.1175   |   57
 S: 16    3:  80.14517   |   136.2494   |   46
 S: 19    4:  79.82246   |   135.911   |   50
 S: 7    5:  72.67617   |   127.9618   |   52
 S: 8    6:  29.28982   |   53.22755   |   58
 S: 3    7:  23.79992   |   47.26454   |   58
 S: 9    8:  69.62498   |   124.937   |   50
 S: 5    9:  9.231949   |   20.82512   |   57
 S: 13    10:  12.91838   |   36.3754   |   49
 S: 14    11:  7.915483   |   10.08988   |   56
 S: 10    12:  5.349187   |   13.05151   |   44
 S: 1    13:  4.145133   |   5.803431   |   54
 S: 6    14:  5.010798   |   12.44137   |   37
 S: 11    15:  2.014576   |   3.515209   |   67
 S: 18    16:  1.387325   |   5.307092   |   66
 S: 12    17:  3.189772   |   8.722046   |   47
 S: 4    18:  2.014503   |   3.515129   |   54
 S: 2    19:  2.005011   |   3.505021   |   52
peak fitness:355.9354 generation: 35 species:17
Final Order:  Avg Fitness | Peak Fitness | Diversity 
 S: 17    0:  102.2973   |   253.6382   |   36
 S: 1    1:  103.7988   |   178.5242   |   35
 S: 14    2:  104.2449   |   178.7736   |   23
 S: 3    3:  89.47022   |   209.825   |   31
 S: 6    4:  103.9339   |   178.5485   |   26
 S: 10    5:  103.7574   |   178.3165   |   26
 S: 8    6:  95.39216   |   154.5827   |   23
 S: 0    7:  85.54156   |   156.0874   |   18
 S: 9    8:  84.17777   |   155.248   |   22
 S: 5    9:  82.44022   |   138.8965   |   24
 S: 15    10:  88.84261   |   114.9909   |   32
 S: 16    11:  93.9935   |   124.6649   |   27
 S: 7    12:  76.18886   |   136.5669   |   29
 S: 4    13:  80.03079   |   136.1431   |   29
 S: 11    14:  79.83294   |   136.1218   |   33
 S: 18    15:  80.20368   |   136.4069   |   23
 S: 13    16:  7.082583   |   16.40861   |   29
 S: 12    17:  5.290141   |   12.96308   |   28
 S: 19    18:  2.014527   |   3.515153   |   37
 S: 2    19:  4.128964   |   5.785285   |   28
peak fitness:429.7737 generation: 36 species:15
Final Order:  Avg Fitness | Peak Fitness | Diversity 
 S: 6    0:  133.0808   |   296.6929   |   30
 S: 15    1:  134.1192   |   297.2297   |   24
 S: 19    2:  116.3391   |   287.0128   |   27
 S: 8    3:  109.0558   |   237.3303   |   35
 S: 3    4:  106.998   |   279.0486   |   32
 S: 16    5:  116.316   |   256.9161   |   29
 S: 11    6:  95.38771   |   285.2827   |   34
 S: 10    7:  146.1317   |   207.4717   |   26
 S: 17    8:  106.0084   |   196.1634   |   27
 S: 9    9:  98.73387   |   169.45   |   33
 S: 13    10:  102.3184   |   192.0917   |   26
 S: 12    11:  89.45219   |   185.1667   |   33
 S: 4    12:  93.73762   |   160.8078   |   28
 S: 7    13:  83.53339   |   140.2322   |   22
 S: 14    14:  80.00436   |   136.1993   |   28
 S: 2    15:  83.33086   |   140.0677   |   20
 S: 0    16:  1.433847   |   5.069278   |   23
 S: 18    17:  1.447475   |   5.068323   |   21
 S: 5    18:  1.410744   |   5.02053   |   24
 S: 1    19:  1.409354   |   5.025823   |   21
peak fitness:476.2015 generation: 37 species:14
Final Order:  Avg Fitness | Peak Fitness | Diversity 
 S: 14    0:  163.2388   |   312.9627   |   28
 S: 9    1:  120.6468   |   285.1749   |   30
 S: 6    2:  124.926   |   288.0163   |   27
 S: 11    3:  114.6631   |   286.1447   |   28
 S: 1    4:  141.2056   |   240.5722   |   41
 S: 18    5:  114.4037   |   284.9766   |   27
 S: 0    6:  116.9646   |   226.0958   |   31
 S: 17    7:  114.2917   |   283.6053   |   20
 S: 12    8:  112.3291   |   282.5541   |   23
 S: 10    9:  107.6772   |   280.6665   |   26
 S: 4    10:  101.6793   |   280.1557   |   28
 S: 3    11:  119.2228   |   225.5554   |   19
 S: 2    12:  90.7578   |   185.9537   |   30
 S: 5    13:  93.1358   |   156.3499   |   35
 S: 8    14:  104.4366   |   183.1985   |   23
 S: 15    15:  3.860193   |   10.16128   |   30
 S: 19    16:  83.64782   |   140.2982   |   25
 S: 13    17:  2.289771   |   7.141158   |   28
 S: 16    18:  1.49418   |   5.12373   |   28
 S: 7    19:  1.447572   |   5.06903   |   27
peak fitness:466.614 generation: 38 species:18
Final Order:  Avg Fitness | Peak Fitness | Diversity 
 S: 18    0:  162.0452   |   304.5689   |   16
 S: 17    1:  144.107   |   265.6648   |   31
 S: 6    2:  142.4403   |   299.2291   |   26
 S: 8    3:  139.1593   |   299.2984   |   26
 S: 9    4:  134.808   |   294.5857   |   29
 S: 13    5:  154.9509   |   253.3036   |   25
 S: 4    6:  126.1173   |   288.1756   |   26
 S: 1    7:  104.6053   |   167.4041   |   33
 S: 12    8:  154.2915   |   252.6641   |   21
 S: 7    9:  81.63799   |   138.4529   |   29
 S: 5    10:  79.96963   |   136.2102   |   29
 S: 2    11:  78.44921   |   134.5448   |   30
 S: 11    12:  79.40905   |   135.4305   |   26
 S: 10    13:  52.81544   |   89.82667   |   30
 S: 16    14:  60.64965   |   101.3451   |   29
 S: 14    15:  63.09709   |   104.5233   |   23
 S: 0    16:  2.886689   |   7.732917   |   30
 S: 19    17:  30.5322   |   54.45149   |   17
 S: 15    18:  1.42837   |   5.059539   |   23
 S: 3    19:  2.275873   |   3.792984   |   22
peak fitness:483.2246 generation: 39 species:2
Final Order:  Avg Fitness | Peak Fitness | Diversity 
 S: 15    0:  193.3317   |   289.8929   |   50
 S: 2    1:  196.9857   |   357.4952   |   33
 S: 19    2:  79.90432   |   136.2044   |   51
 S: 6    3:  80.04842   |   136.423   |   42
 S: 17    4:  133.1837   |   293.5731   |   35
 S: 4    5:  60.4658   |   101.1382   |   45
 S: 11    6:  42.41806   |   72.39936   |   42
 S: 1    7:  26.13077   |   49.08474   |   50
 S: 18    8:  32.23652   |   38.52875   |   38
 S: 12    9:  7.710459   |   17.7586   |   47
 S: 13    10:  32.25015   |   38.45226   |   37
 S: 10    11:  24.4358   |   47.06548   |   36
 S: 5    12:  5.503919   |   10.64292   |   44
 S: 7    13:  4.628588   |   11.6865   |   39
 S: 9    14:  3.898989   |   10.24003   |   45
 S: 16    15:  3.80084   |   10.10312   |   39
 S: 3    16:  2.759578   |   4.307705   |   43
 S: 8    17:  1.543888   |   5.071778   |   42
 S: 0    18:  2.022545   |   3.523448   |   34
 S: 14    19:  1.472706   |   5.050365   |   31
peak fitness:484.3925 generation: 40 species:13
Final Order:  Avg Fitness | Peak Fitness | Diversity 
 S: 13    0:  193.6434   |   290.7491   |   32
 S: 8    1:  190.5244   |   280.7675   |   32
 S: 11    2:  110.3392   |   250.8461   |   33
 S: 18    3:  98.62806   |   181.0716   |   34
 S: 9    4:  109.7908   |   220.4955   |   30
 S: 0    5:  95.16165   |   167.4243   |   40
 S: 3    6:  84.20272   |   141.0587   |   23
 S: 14    7:  83.46725   |   140.2798   |   26
 S: 15    8:  79.86115   |   136.1445   |   24
 S: 12    9:  7.848448   |   17.37894   |   28
 S: 6    10:  3.609465   |   5.219557   |   32
 S: 17    11:  6.688386   |   15.69848   |   20
 S: 7    12:  1.475528   |   5.053462   |   40
 S: 5    13:  1.587593   |   5.57651   |   21
 S: 2    14:  1.440701   |   5.073453   |   31
 S: 10    15:  2.014543   |   3.515172   |   30
 S: 16    16:  1.447491   |   5.068267   |   27
 S: 4    17:  2.014524   |   3.515151   |   33
 S: 1    18:  2.014584   |   3.515215   |   19
 S: 19    19:  2.014543   |   3.515171   |   24
peak fitness:415.4717 generation: 41 species:6
Final Order:  Avg Fitness | Peak Fitness | Diversity 
 S: 12    0:  168.7998   |   246.6718   |   42
 S: 6    1:  191.8685   |   285.6013   |   40
 S: 8    2:  123.6875   |   224.9968   |   42
 S: 10    3:  104.5935   |   166.0839   |   43
 S: 16    4:  166.3315   |   239.4182   |   31
 S: 15    5:  80.25203   |   136.3899   |   47
 S: 2    6:  80.22897   |   136.3864   |   56
 S: 7    7:  83.34019   |   140.1203   |   35
 S: 3    8:  80.02105   |   136.1665   |   40
 S: 4    9:  6.66787   |   15.71391   |   41
 S: 13    10:  32.23874   |   38.53233   |   33
 S: 19    11:  4.783951   |   6.513111   |   41
 S: 18    12:  3.633968   |   5.243991   |   42
 S: 9    13:  2.401577   |   5.429525   |   40
 S: 1    14:  1.400824   |   5.028983   |   52
 S: 14    15:  1.578681   |   5.129611   |   38
 S: 11    16:  2.014516   |   3.515142   |   45
 S: 17    17:  1.39463   |   5.017979   |   43
 S: 0    18:  1.472176   |   5.097275   |   34
 S: 5    19:  2.014586   |   3.515217   |   35
peak fitness:360.3123 generation: 42 species:2
Final Order:  Avg Fitness | Peak Fitness | Diversity 
 S: 2    0:  110.68   |   249.6323   |   56
 S: 0    1:  165.4167   |   236.8622   |   55
 S: 3    2:  96.91032   |   244.2535   |   54
 S: 9    3:  82.61043   |   154.9106   |   54
 S: 14    4:  130.2206   |   208.2278   |   40
 S: 4    5:  80.72902   |   136.0817   |   53
 S: 11    6:  17.77959   |   40.52563   |   54
 S: 19    7:  5.337007   |   7.130834   |   53
 S: 7    8:  1.805492   |   5.084798   |   63
 S: 12    9:  2.015105   |   3.515764   |   47
 S: 1    10:  1.472176   |   5.050782   |   57
 S: 18    11:  2.014594   |   3.515228   |   68
 S: 5    12:  2.015077   |   3.515736   |   48
 S: 17    13:  1.484517   |   5.042721   |   55
 S: 8    14:  2.014906   |   3.515563   |   51
 S: 15    15:  2.014906   |   3.515555   |   42
 S: 10    16:  2.014571   |   3.515205   |   52
 S: 6    17:  2.005011   |   3.505021   |   49
 S: 13    18:  2.005011   |   3.505021   |   53
 S: 16    19:  2.005011   |   3.505021   |   53
peak fitness:412.4206 generation: 43 species:5
Final Order:  Avg Fitness | Peak Fitness | Diversity 
 S: 19    0:  124.9915   |   287.4291   |   68
 S: 5    1:  134.0176   |   294.4803   |   58
 S: 12    2:  102.7444   |   149.0746   |   65
 S: 14    3:  64.74503   |   100.373   |   79
 S: 3    4:  79.99999   |   136.1725   |   65
 S: 2    5:  41.77936   |   80.21021   |   74
 S: 15    6:  71.54305   |   127.3556   |   56
 S: 16    7:  52.65366   |   91.09798   |   64
 S: 1    8:  38.66434   |   77.67166   |   71
 S: 8    9:  38.49828   |   76.98456   |   66
 S: 9    10:  38.50661   |   77.51096   |   63
 S: 10    11:  12.2544   |   36.12909   |   71
 S: 4    12:  6.800762   |   8.771847   |   79
 S: 13    13:  6.885657   |   16.0842   |   68
 S: 18    14:  21.94386   |   44.51846   |   54
 S: 17    15:  2.787833   |   7.988947   |   74
 S: 11    16:  2.368356   |   7.234756   |   65
 S: 0    17:  2.005011   |   3.505021   |   68
 S: 6    18:  2.014731   |   3.515374   |   64
 S: 7    19:  1.413255   |   5.041611   |   63
