peak fitness:502.8291 generation: 0 species:11
Final Order:  Avg Fitness | Peak Fitness | Diversity 
 S: 10    0:  182.1298   |   320.6993   |   0
 S: 11    1:  177.517   |   322.631   |   0
 S: 12    2:  142.3005   |   300.2134   |   0
 S: 0    3:  131.7396   |   292.2956   |   0
 S: 15    4:  142.8859   |   264.769   |   0
 S: 14    5:  123.6636   |   286.7327   |   0
 S: 5    6:  117.7008   |   283.2258   |   0
 S: 2    7:  105.5215   |   282.2245   |   0
 S: 6    8:  80.45222   |   136.7472   |   0
 S: 7    9:  65.07155   |   119.6388   |   0
 S: 1    10:  63.73058   |   119.8431   |   0
 S: 17    11:  25.69694   |   48.67307   |   0
 S: 19    12:  13.53209   |   36.51587   |   0
 S: 8    13:  5.481486   |   13.37499   |   0
 S: 3    14:  5.17425   |   12.8822   |   0
 S: 16    15:  5.111501   |   11.16367   |   0
 S: 18    16:  3.029361   |   8.577   |   0
 S: 4    17:  2.015028   |   3.515681   |   0
 S: 9    18:  1.945877   |   6.424828   |   0
 S: 13    19:  2.014544   |   3.515176   |   0
peak fitness:500.6604 generation: 1 species:15
Final Order:  Avg Fitness | Peak Fitness | Diversity 
 S: 1    0:  196.8094   |   303.851   |   30
 S: 15    1:  189.5206   |   328.0443   |   26
 S: 5    2:  180.2798   |   323.4861   |   30
 S: 10    3:  194.1675   |   288.0356   |   30
 S: 21    4:  182.1298   |   320.6993   |   0
 S: 17    5:  124.3464   |   287.6501   |   25
 S: 11    6:  86.2449   |   140.2064   |   27
 S: 4    7:  99.13055   |   181.5975   |   21
 S: 19    8:  94.78606   |   167.6207   |   23
 S: 13    9:  48.86642   |   87.25939   |   24
 S: 6    10:  21.83631   |   44.7127   |   26
 S: 16    11:  7.4568   |   16.9099   |   31
 S: 3    12:  6.395938   |   15.15221   |   36
 S: 7    13:  8.298817   |   18.52921   |   26
 S: 0    14:  5.388072   |   13.12009   |   27
 S: 8    15:  5.253291   |   12.98091   |   25
 S: 9    16:  3.418129   |   6.008789   |   34
 S: 2    17:  5.234288   |   12.90673   |   23
 S: 12    18:  2.014517   |   3.515143   |   32
 S: 18    19:  2.00995   |   6.195283   |   28
 S: 14    20:  2.969307   |   8.425746   |   24



2: 4 COMPLETED THE COURSE!

